…
In this section, I shall investigate a few different questions related to the gapminder data.frame, using `dplyr` as the main tool for data manipulation, and `ggplot2` as the main tool of visualisation.

#### The maximum and minimum of GDP per capita for all continents.

Let's analyse how the maximum and minimum of GDP per capita for all continents compares to each other.

``` r
gpmdr <- gapminder %>% 
  select(year, continent, gdpPercap) %>% 
  group_by(year, continent) %>% 
  summarise(min = min(gdpPercap), max = max(gdpPercap))
gpmdr
```

    ## # A tibble: 60 x 4
    ## # Groups:   year [?]
    ##     year continent    min     max
    ##    <int> <fct>      <dbl>   <dbl>
    ##  1  1952 Africa      299.   4725.
    ##  2  1952 Americas   1398.  13990.
    ##  3  1952 Asia        331  108382.
    ##  4  1952 Europe      974.  14734.
    ##  5  1952 Oceania   10040.  10557.
    ##  6  1957 Africa      336.   5487.
    ##  7  1957 Americas   1544.  14847.
    ##  8  1957 Asia        350  113523.
    ##  9  1957 Europe     1354.  17909.
    ## 10  1957 Oceania   10950.  12247.
    ## # ... with 50 more rows
…
  #group the data by year and continent
  group_by(year, continent) %>% 
  
  #within the grouping by continent, compute the relative number of countries 
  #with that continent which have life expectancy below r_age_canada.
  #Note that sum counts TRUE as 1 and FALSE as 0, so `sum(lifeExp_low)` is the total 
  #number of countries within a continent which have life expectancy below r_age_canada
  #Finally n() is the number of observations in the current group (i.e. continent) (discussed below), 
  #so sum(lifeExp_low)/n() is the relative abundance of countries with life expectancy 
  #less than r_age_canada.
  summarise(rel_lifeExp_low = 100*sum(lifeExp_low)/n())
abs
```

    ## # A tibble: 60 x 3
    ## # Groups:   year [?]
    ##     year continent rel_lifeExp_low
    ##    <int> <fct>               <dbl>
    ##  1  1952 Africa              100  
    ##  2  1952 Americas             84  
    ##  3  1952 Asia                 97.0
    ##  4  1952 Europe               33.3
    ##  5  1952 Oceania               0  
    ##  6  1957 Africa              100  
    ##  7  1957 Americas             80  
    ##  8  1957 Asia                 90.9
    ##  9  1957 Europe               20  
    ## 10  1957 Oceania               0  
    ## # ... with 50 more rows
…
